{
  "transferId": 11111111,
  "sourceAccountId": "534b58fc-74c1-11e8-adc0-fa7ae01bbebc",
  "targetAccountId": "534b3de0-74c1-11e8-adc0-fa7ae01bbebc",
  "amount": 200,
  "currency": "EUR",
  "reference": "Deposit"
}